<?xml version="1.0" encoding="UTF-8" standalone="no"?>
<svg
   xmlns:dc="http://purl.org/dc/elements/1.1/"
   xmlns:cc="http://creativecommons.org/ns#"
   xmlns:rdf="http://www.w3.org/1999/02/22-rdf-syntax-ns#"
   xmlns:svg="http://www.w3.org/2000/svg"
   xmlns="http://www.w3.org/2000/svg"
   xmlns:sodipodi="http://sodipodi.sourceforge.net/DTD/sodipodi-0.dtd"
   xmlns:inkscape="http://www.inkscape.org/namespaces/inkscape"
   version="1.1"
   id="svg2"
   viewBox="0 0 245 245.00001"
   height="245"
   width="245"
   inkscape:version="0.92.5 (2060ec1f9f, 2020-04-08)"
   sodipodi:docname="favicon.svg"
   inkscape:export-filename="/home/sarato/svrbc.org/src/favicon.png"
   inkscape:export-xdpi="89.942001"
   inkscape:export-ydpi="89.942001">
  <sodipodi:namedview
     pagecolor="#ffffff"
     bordercolor="#666666"
     borderopacity="1"
     objecttolerance="10"
     gridtolerance="10"
     guidetolerance="10"
     inkscape:pageopacity="0"
     inkscape:pageshadow="2"
     inkscape:window-width="1528"
     inkscape:window-height="836"
     id="namedview6"
     showgrid="false"
     units="px"
     inkscape:document-units="in"
     inkscape:zoom="1.3485026"
     inkscape:cx="86.747806"
     inkscape:cy="140.90245"
     inkscape:window-x="72"
     inkscape:window-y="27"
     inkscape:window-maximized="1"
     inkscape:current-layer="svg2"
     fit-margin-top="0"
     fit-margin-left="0"
     fit-margin-right="0"
     fit-margin-bottom="0" />
  <defs
     id="defs4" />
  <metadata
     id="metadata7">
    <rdf:RDF>
      <cc:Work
         rdf:about="">
        <dc:format>image/svg+xml</dc:format>
        <dc:type
           rdf:resource="http://purl.org/dc/dcmitype/StillImage" />
        <dc:title />
      </cc:Work>
    </rdf:RDF>
  </metadata>
  <g
     id="g1047"
     transform="translate(-1.889606e-6)">
    <g
       transform="matrix(0.9751624,0,0,0.9751624,3.0439488,3.0432834)"
       id="g933">
      <path
         style="color:#000000;font-style:normal;font-variant:normal;font-weight:normal;font-stretch:normal;font-size:medium;line-height:normal;font-family:sans-serif;text-indent:0;text-align:start;text-decoration:none;text-decoration-line:none;text-decoration-style:solid;text-decoration-color:#000000;letter-spacing:normal;word-spacing:normal;text-transform:none;writing-mode:lr-tb;direction:ltr;baseline-shift:baseline;text-anchor:start;white-space:normal;clip-rule:nonzero;display:inline;overflow:visible;visibility:visible;opacity:1;isolation:auto;mix-blend-mode:normal;color-interpolation:sRGB;color-interpolation-filters:linearRGB;solid-color:#000000;solid-opacity:1;fill:#000000;fill-opacity:1;fill-rule:evenodd;stroke:#000000;stroke-width:6.24000025;stroke-linecap:butt;stroke-linejoin:miter;stroke-miterlimit:4;stroke-dasharray:none;stroke-dashoffset:0;stroke-opacity:1;color-rendering:auto;image-rendering:auto;shape-rendering:auto;text-rendering:auto;enable-background:accumulate"
         clip-path="none"
         d="m 122.49862,0.00330592 c -10.55999,0 -19.26191,8.70119398 -19.26191,19.26087408 0,8.13705 5.18468,15.12884 12.38706,17.92645 V 64.76214 L 103.43003,76.94857 H 75.926435 C 73.1264,69.74851 66.130183,64.56778 57.993716,64.56778 c -10.55983,0 -19.260871,8.69609 -19.260871,19.25565 0,10.55966 8.700887,19.26192 19.260871,19.26192 8.137603,0 15.132787,-5.18324 17.932719,-12.38602 H 109.12929 L 129.37347,70.45514 V 37.19063 c 7.20338,-2.7976 12.38707,-9.78944 12.38707,-17.92645 0,-10.5596801 -8.70196,-19.26087408 -19.26192,-19.26087408 z m 0,3.42645598 c 8.67454,0 15.8292,7.1598681 15.8292,15.8344181 0,6.76947 -4.3854,12.60172 -10.42253,14.83752 h -10e-4 l -1.96141,0.73043 V 69.04025 L 107.70821,87.27287 H 73.560526 l -0.723119,1.95723 v 0.001 c -2.235648,6.03647 -8.073547,10.42774 -14.843787,10.42774 -8.673483,0 -15.829195,-7.16093 -15.829195,-15.83546 0,-8.67451 7.155529,-15.82919 15.829195,-15.82919 6.770593,0 12.608396,4.3918 14.843787,10.42879 l 0.723119,1.95723 H 104.8584 L 119.05536,66.18333 V 34.83224 L 117.0929,34.1018 c -6.03712,-2.23579 -10.42252,-8.06805 -10.42252,-14.83752 0,-8.67454 7.1536,-15.8344171 15.82814,-15.8344171 z m 0,6.8926181 c -4.90989,0 -8.9418,4.03127 -8.9418,8.9418 0,4.91053 4.0322,8.93658 8.9418,8.93658 4.90957,0 8.94286,-4.02604 8.94286,-8.93658 0,-4.91054 -4.03299,-8.9418 -8.94286,-8.9418 z m 0,3.43273 c 3.13618,0 5.50804,2.37329 5.50804,5.50907 0,3.13566 -2.37146,5.5049 -5.50804,5.5049 -3.13661,0 -5.51117,-2.36942 -5.51117,-5.5049 0,-3.1356 2.37496,-5.50907 5.51117,-5.50907 z m 64.50492,50.81267 c -8.1376,0 -15.13279,5.18324 -17.93273,12.38602 h -33.20284 l -20.2442,20.24419 V 207.8059 c -7.20239,2.79771 -12.38706,9.7905 -12.38706,17.9275 0,10.55968 8.70192,19.26191 19.26191,19.26191 10.55996,0 19.26192,-8.70223 19.26192,-19.26191 0,-8.13694 -5.18369,-15.12979 -12.38707,-17.9275 V 102.89098 l 12.19376,-12.18643 h 27.50358 c 2.80005,7.20007 9.79626,12.3808 17.93273,12.3808 10.55983,0 19.26087,-8.69611 19.26087,-19.25565 0,-10.55967 -8.70089,-19.26192 -19.26087,-19.26192 z m 0,3.42645 c 8.67349,0 15.82919,7.16094 15.82919,15.83547 0,8.67451 -7.15553,15.82919 -15.82919,15.82919 -6.77059,0 -12.6084,-4.39181 -14.84379,-10.42879 l -0.72312,-1.95723 h -31.29787 l -14.19696,14.19695 v 108.69667 l 1.96245,0.72939 c 6.03713,2.2358 10.42253,8.06802 10.42253,14.83752 0,8.67451 -7.15466,15.83442 -15.8292,15.83442 -8.67455,0 -15.82815,-7.15991 -15.82815,-15.83442 0,-6.7695 4.3854,-12.60172 10.42253,-14.83752 l 1.96245,-0.72939 V 98.6181 l 6.88739,2.85172 -6.88739,-2.85694 18.2347,-18.23263 h 34.14752 l 0.72312,-1.95722 v -10e-4 c 2.23566,-6.03648 8.07355,-10.42775 14.84379,-10.42775 z m 0,6.89262 c -4.90993,0 -8.9418,4.03221 -8.9418,8.94285 0,4.91044 4.03228,8.93449 8.9418,8.93449 4.91052,-1e-5 8.9418,-4.02412 8.9418,-8.93449 0,-4.91057 -4.03087,-8.94285 -8.9418,-8.94285 z m -129.009824,0.002 c -4.910517,0 -8.941799,4.02411 -8.941799,8.93449 0,4.91057 4.030871,8.94284 8.941799,8.94284 4.909925,0 8.941806,-4.03221 8.941806,-8.94284 0,-4.91045 -4.032286,-8.93449 -8.941806,-8.93449 z m 129.009824,3.42959 c 3.13613,-10e-6 5.51012,2.37535 5.51012,5.51117 0,3.13555 -2.37351,5.50385 -5.51012,5.50385 -3.13549,0 -5.51012,-2.36847 -5.51012,-5.50385 0,-3.13565 2.37511,-5.51117 5.51012,-5.51117 z m -129.009824,0.001 c 3.135488,0 5.510123,2.36847 5.510123,5.50386 0,3.13563 -2.375114,5.51116 -5.510123,5.51116 -3.136126,0 -5.510122,-2.37536 -5.510122,-5.51116 0,-3.13556 2.373511,-5.50386 5.510122,-5.50386 z m 64.503864,138.47612 c -4.90961,0 -8.9418,4.02721 -8.9418,8.93763 0,4.91063 4.03191,8.94075 8.9418,8.94075 4.90985,0 8.94285,-4.03012 8.94285,-8.94075 0,-4.91042 -4.03328,-8.93763 -8.94285,-8.93763 z m 0,3.43273 c 3.13549,0 5.50803,2.36934 5.50803,5.5049 0,3.13572 -2.37295,5.50907 -5.50803,5.50907 -3.13621,0 -5.51117,-2.37346 -5.51117,-5.50907 0,-3.13545 2.37456,-5.5049 5.51117,-5.5049 z"
         id="path2731"
         inkscape:connector-curvature="0" />
    </g>
    <path
       inkscape:connector-curvature="0"
       d="m 185.40277,69.348701 c 8.45806,0 15.43603,6.983079 15.43603,15.442154 0,8.459056 -6.9778,15.436035 -15.43603,15.436035 -6.60243,0 -12.29524,-4.282732 -14.47511,-10.169768 L 170.2225,88.148505 H 139.702 l -13.84434,13.844335 v 105.9969 l 1.9137,0.71128 c 5.88719,2.18026 10.16366,7.86763 10.16366,14.46899 0,8.45905 -6.97695,15.44113 -15.43604,15.44113 -8.45909,0 -15.43501,-6.98208 -15.43501,-15.44113 0,-6.60136 4.27647,-12.28873 10.16366,-14.46899 l 1.9137,-0.71128 V 99.211947 l 6.71633,2.780893 -6.71633,-2.785983 17.7818,-17.779775 h 33.29937 l 0.70516,-1.908608 v -9.75e-4 c 2.18014,-5.886548 7.87303,-10.16875 14.47511,-10.16875 z M 122.5,6.3878583 c 8.45908,0 15.43604,6.9820337 15.43604,15.4411287 0,6.601333 -4.27648,12.288724 -10.16366,14.468992 h -9.8e-4 l -1.91269,0.712288 V 70.368739 L 108.07695,88.148504 H 74.777408 l -0.70516,1.908617 v 9.76e-4 c -2.18012,5.886538 -7.87302,10.168743 -14.4751,10.168743 -8.45806,0 -15.43604,-6.983073 -15.43604,-15.442149 0,-8.459056 6.9778,-15.43603 15.43604,-15.43603 6.60243,0 12.29523,4.282718 14.4751,10.169763 l 0.70516,1.908617 H 105.29792 L 119.14226,67.582778 V 37.010374 l -1.91372,-0.712298 c -5.88717,-2.180258 -10.16365,-7.867659 -10.16365,-14.468991 0,-8.459086 6.97592,-15.4411287 15.43501,-15.4411287 z"
       style="color:#000000;font-style:normal;font-variant:normal;font-weight:normal;font-stretch:normal;font-size:medium;line-height:normal;font-family:sans-serif;text-indent:0;text-align:start;text-decoration:none;text-decoration-line:none;text-decoration-style:solid;text-decoration-color:#000000;letter-spacing:normal;word-spacing:normal;text-transform:none;writing-mode:lr-tb;direction:ltr;baseline-shift:baseline;text-anchor:start;white-space:normal;clip-rule:nonzero;display:inline;overflow:visible;visibility:visible;opacity:1;isolation:auto;mix-blend-mode:normal;color-interpolation:sRGB;color-interpolation-filters:linearRGB;solid-color:#000000;solid-opacity:1;fill:#ffffff;fill-opacity:1;fill-rule:evenodd;stroke:none;stroke-width:6.08501339;stroke-linecap:butt;stroke-linejoin:miter;stroke-miterlimit:4;stroke-dasharray:none;stroke-dashoffset:0;stroke-opacity:1;color-rendering:auto;image-rendering:auto;shape-rendering:auto;text-rendering:auto;enable-background:accumulate"
       id="path952" />
    <g
       style="fill:#ffffff;fill-opacity:1;stroke:#0d0000;stroke-opacity:1"
       id="g1037">
      <path
         style="color:#000000;font-style:normal;font-variant:normal;font-weight:normal;font-stretch:normal;font-size:medium;line-height:normal;font-family:sans-serif;text-indent:0;text-align:start;text-decoration:none;text-decoration-line:none;text-decoration-style:solid;text-decoration-color:#000000;letter-spacing:normal;word-spacing:normal;text-transform:none;writing-mode:lr-tb;direction:ltr;baseline-shift:baseline;text-anchor:start;white-space:normal;clip-rule:nonzero;display:inline;overflow:visible;visibility:visible;opacity:1;isolation:auto;mix-blend-mode:normal;color-interpolation:sRGB;color-interpolation-filters:linearRGB;solid-color:#000000;solid-opacity:1;fill:#ffffff;fill-opacity:1;fill-rule:evenodd;stroke:#0d0000;stroke-width:6.08501339;stroke-linecap:butt;stroke-linejoin:miter;stroke-miterlimit:4;stroke-dasharray:none;stroke-dashoffset:0;stroke-opacity:1;color-rendering:auto;image-rendering:auto;shape-rendering:auto;text-rendering:auto;enable-background:accumulate"
         d="m 122.5,16.456749 c 3.05828,0 5.37123,2.314344 5.37123,5.372238 0,3.057778 -2.31256,5.368172 -5.37123,5.368172 -3.05871,0 -5.37429,-2.310569 -5.37429,-5.368172 0,-3.057719 2.31597,-5.372238 5.37429,-5.372238 z"
         id="path1015"
         inkscape:connector-curvature="0" />
      <path
         style="color:#000000;font-style:normal;font-variant:normal;font-weight:normal;font-stretch:normal;font-size:medium;line-height:normal;font-family:sans-serif;text-indent:0;text-align:start;text-decoration:none;text-decoration-line:none;text-decoration-style:solid;text-decoration-color:#000000;letter-spacing:normal;word-spacing:normal;text-transform:none;writing-mode:lr-tb;direction:ltr;baseline-shift:baseline;text-anchor:start;white-space:normal;clip-rule:nonzero;display:inline;overflow:visible;visibility:visible;opacity:1;isolation:auto;mix-blend-mode:normal;color-interpolation:sRGB;color-interpolation-filters:linearRGB;solid-color:#000000;solid-opacity:1;fill:#ffffff;fill-opacity:1;fill-rule:evenodd;stroke:#0d0000;stroke-width:6.08501339;stroke-linecap:butt;stroke-linejoin:miter;stroke-miterlimit:4;stroke-dasharray:none;stroke-dashoffset:0;stroke-opacity:1;color-rendering:auto;image-rendering:auto;shape-rendering:auto;text-rendering:auto;enable-background:accumulate"
         d="m 185.40277,79.416431 c 3.05824,-9e-6 5.37326,2.316352 5.37326,5.374286 0,3.057671 -2.31456,5.367148 -5.37326,5.367148 -3.05761,0 -5.37326,-2.309643 -5.37326,-5.367148 0,-3.057768 2.31612,-5.374286 5.37326,-5.374286 z"
         id="path1005"
         inkscape:connector-curvature="0" />
      <path
         style="color:#000000;font-style:normal;font-variant:normal;font-weight:normal;font-stretch:normal;font-size:medium;line-height:normal;font-family:sans-serif;text-indent:0;text-align:start;text-decoration:none;text-decoration-line:none;text-decoration-style:solid;text-decoration-color:#000000;letter-spacing:normal;word-spacing:normal;text-transform:none;writing-mode:lr-tb;direction:ltr;baseline-shift:baseline;text-anchor:start;white-space:normal;clip-rule:nonzero;display:inline;overflow:visible;visibility:visible;opacity:1;isolation:auto;mix-blend-mode:normal;color-interpolation:sRGB;color-interpolation-filters:linearRGB;solid-color:#000000;solid-opacity:1;fill:#ffffff;fill-opacity:1;fill-rule:evenodd;stroke:#0d0000;stroke-width:6.08501339;stroke-linecap:butt;stroke-linejoin:miter;stroke-miterlimit:4;stroke-dasharray:none;stroke-dashoffset:0;stroke-opacity:1;color-rendering:auto;image-rendering:auto;shape-rendering:auto;text-rendering:auto;enable-background:accumulate"
         d="m 59.59724,79.417406 c 3.05761,0 5.373265,2.309643 5.373265,5.367158 0,3.057748 -2.316122,5.374276 -5.373265,5.374276 -3.058232,0 -5.373264,-2.316362 -5.373264,-5.374276 0,-3.05768 2.314559,-5.367158 5.373264,-5.367158 z"
         id="path1003"
         inkscape:connector-curvature="0" />
      <path
         style="color:#000000;font-style:normal;font-variant:normal;font-weight:normal;font-stretch:normal;font-size:medium;line-height:normal;font-family:sans-serif;text-indent:0;text-align:start;text-decoration:none;text-decoration-line:none;text-decoration-style:solid;text-decoration-color:#000000;letter-spacing:normal;word-spacing:normal;text-transform:none;writing-mode:lr-tb;direction:ltr;baseline-shift:baseline;text-anchor:start;white-space:normal;clip-rule:nonzero;display:inline;overflow:visible;visibility:visible;opacity:1;isolation:auto;mix-blend-mode:normal;color-interpolation:sRGB;color-interpolation-filters:linearRGB;solid-color:#000000;solid-opacity:1;fill:#ffffff;fill-opacity:1;fill-rule:evenodd;stroke:#0d0000;stroke-width:6.08501339;stroke-linecap:butt;stroke-linejoin:miter;stroke-miterlimit:4;stroke-dasharray:none;stroke-dashoffset:0;stroke-opacity:1;color-rendering:auto;image-rendering:auto;shape-rendering:auto;text-rendering:auto;enable-background:accumulate"
         d="m 122.49898,217.80158 c 3.05761,0 5.37123,2.31049 5.37123,5.36817 0,3.05784 -2.31401,5.37224 -5.37123,5.37224 -3.05831,0 -5.37428,-2.31451 -5.37428,-5.37224 0,-3.05757 2.31558,-5.36817 5.37428,-5.36817 z"
         id="path965"
         inkscape:connector-curvature="0" />
    </g>
  </g>
  <text
     xml:space="preserve"
     style="font-style:normal;font-variant:normal;font-weight:normal;font-stretch:normal;font-size:16px;line-height:1;font-family:C059;-inkscape-font-specification:C059;text-align:center;letter-spacing:0px;word-spacing:0px;text-anchor:middle;fill:#000000;fill-opacity:1;stroke:none"
     x="33.034958"
     y="-65.948097"
     id="text971"><tspan
       sodipodi:role="line"
       id="tspan969"
       x="33.034958"
       y="-54.156097"></tspan></text>
</svg>
